{"serialNo":"TestDeviceOne:1"}
{"serialNo":"TestDeviceOne:2"}
{"serialNo":"TestDeviceOne:3"}
{"serialNo":"TestDeviceOne:4"}
{"serialNo":"TestDeviceOne:5"}
{"serialNo":"TestDeviceOne:6"}
{"serialNo":"TestDeviceOne:7"}
{"serialNo":"TestDeviceOne:8"}
{"serialNo":"TestDeviceOne:9"}
{"serialNo":"TestDeviceOne:10"}
{"serialNo":"TestDeviceOne:11"}
{"serialNo":"TestDeviceOne:12"}
{"serialNo":"TestDeviceOne:13"}
{"serialNo":"TestDeviceOne:14"}
{"serialNo":"TestDeviceOne:15"}
{"serialNo":"TestDeviceOne:16"}
{"serialNo":"TestDeviceOne:17"}
{"serialNo":"TestDeviceOne:18"}
{"serialNo":"TestDeviceOne:19"}
{"serialNo":"TestDeviceOne:20"}
{"serialNo":"TestDeviceOne:21"}
{"serialNo":"TestDeviceOne:22"}
{"serialNo":"TestDeviceOne:23"}
{"serialNo":"TestDeviceOne:24"}
{"serialNo":"TestDeviceOne:25"}
{"serialNo":"TestDeviceOne:26"}
{"serialNo":"TestDeviceOne:27"}
{"serialNo":"TestDeviceOne:28"}
{"serialNo":"TestDeviceOne:29"}
{"serialNo":"TestDeviceOne:30"}
{"serialNo":"TestDeviceOne:31"}
{"serialNo":"TestDeviceOne:32"}
{"serialNo":"TestDeviceOne:33"}
{"serialNo":"TestDeviceOne:34"}
{"serialNo":"TestDeviceOne:35"}
{"serialNo":"TestDeviceOne:36"}
{"serialNo":"TestDeviceOne:37"}
{"serialNo":"TestDeviceOne:38"}
{"serialNo":"TestDeviceOne:39"}
{"serialNo":"TestDeviceOne:40"}
{"serialNo":"TestDeviceOne:41"}
{"serialNo":"TestDeviceOne:42"}
{"serialNo":"TestDeviceOne:43"}
{"serialNo":"TestDeviceOne:44"}
{"serialNo":"TestDeviceOne:45"}
{"serialNo":"TestDeviceOne:46"}
{"serialNo":"TestDeviceOne:47"}
{"serialNo":"TestDeviceOne:48"}
{"serialNo":"TestDeviceOne:49"}
{"serialNo":"TestDeviceOne:50"}
{"serialNo":"TestDeviceOne:51"}
{"serialNo":"TestDeviceOne:52"}
{"serialNo":"TestDeviceOne:53"}
{"serialNo":"TestDeviceOne:54"}
{"serialNo":"TestDeviceOne:55"}
{"serialNo":"TestDeviceOne:56"}
{"serialNo":"TestDeviceOne:57"}
{"serialNo":"TestDeviceOne:58"}
{"serialNo":"TestDeviceOne:59"}
{"serialNo":"TestDeviceOne:60"}
{"serialNo":"TestDeviceOne:61"}
{"serialNo":"TestDeviceOne:62"}
{"serialNo":"TestDeviceOne:63"}
{"serialNo":"TestDeviceOne:64"}
{"serialNo":"TestDeviceOne:65"}
{"serialNo":"TestDeviceOne:66"}
{"serialNo":"TestDeviceOne:67"}
{"serialNo":"TestDeviceOne:68"}
{"serialNo":"TestDeviceOne:69"}
{"serialNo":"TestDeviceOne:70"}
{"serialNo":"TestDeviceOne:71"}
{"serialNo":"TestDeviceOne:72"}
{"serialNo":"TestDeviceOne:73"}
{"serialNo":"TestDeviceOne:74"}
{"serialNo":"TestDeviceOne:75"}
{"serialNo":"TestDeviceOne:76"}
{"serialNo":"TestDeviceOne:77"}
{"serialNo":"TestDeviceOne:78"}
{"serialNo":"TestDeviceOne:79"}
{"serialNo":"TestDeviceOne:80"}
{"serialNo":"TestDeviceOne:81"}
{"serialNo":"TestDeviceOne:82"}
{"serialNo":"TestDeviceOne:83"}
{"serialNo":"TestDeviceOne:84"}
{"serialNo":"TestDeviceOne:85"}
{"serialNo":"TestDeviceOne:86"}
{"serialNo":"TestDeviceOne:87"}
{"serialNo":"TestDeviceOne:88"}
{"serialNo":"TestDeviceOne:89"}
{"serialNo":"TestDeviceOne:90"}
{"serialNo":"TestDeviceOne:91"}
{"serialNo":"TestDeviceOne:92"}
{"serialNo":"TestDeviceOne:93"}
{"serialNo":"TestDeviceOne:94"}
{"serialNo":"TestDeviceOne:95"}
{"serialNo":"TestDeviceOne:96"}
{"serialNo":"TestDeviceOne:97"}
{"serialNo":"TestDeviceOne:98"}
{"serialNo":"TestDeviceOne:99"}
{"serialNo":"TestDeviceOne:100"}
{"serialNo":"TestDeviceOne:101"}
{"serialNo":"TestDeviceOne:102"}
{"serialNo":"TestDeviceOne:103"}
{"serialNo":"TestDeviceOne:104"}
{"serialNo":"TestDeviceOne:105"}
{"serialNo":"TestDeviceOne:106"}
{"serialNo":"TestDeviceOne:107"}
{"serialNo":"TestDeviceOne:108"}
{"serialNo":"TestDeviceOne:109"}
{"serialNo":"TestDeviceOne:110"}
{"serialNo":"TestDeviceOne:111"}
{"serialNo":"TestDeviceOne:112"}
{"serialNo":"TestDeviceOne:113"}
{"serialNo":"TestDeviceOne:114"}
{"serialNo":"TestDeviceOne:115"}
{"serialNo":"TestDeviceOne:116"}
{"serialNo":"TestDeviceOne:117"}
{"serialNo":"TestDeviceOne:118"}
{"serialNo":"TestDeviceOne:119"}
{"serialNo":"TestDeviceOne:120"}
{"serialNo":"TestDeviceOne:121"}
{"serialNo":"TestDeviceOne:122"}
{"serialNo":"TestDeviceOne:123"}
{"serialNo":"TestDeviceOne:124"}
{"serialNo":"TestDeviceOne:125"}
{"serialNo":"TestDeviceOne:126"}
{"serialNo":"TestDeviceOne:127"}
{"serialNo":"TestDeviceOne:128"}
{"serialNo":"TestDeviceOne:129"}
{"serialNo":"TestDeviceOne:130"}
{"serialNo":"TestDeviceOne:131"}
{"serialNo":"TestDeviceOne:132"}
{"serialNo":"TestDeviceOne:133"}
{"serialNo":"TestDeviceOne:134"}
{"serialNo":"TestDeviceOne:135"}
{"serialNo":"TestDeviceOne:136"}
{"serialNo":"TestDeviceOne:137"}
{"serialNo":"TestDeviceOne:138"}
{"serialNo":"TestDeviceOne:139"}
{"serialNo":"TestDeviceOne:140"}
{"serialNo":"TestDeviceOne:141"}
{"serialNo":"TestDeviceOne:142"}
{"serialNo":"TestDeviceOne:143"}
{"serialNo":"TestDeviceOne:144"}
{"serialNo":"TestDeviceOne:145"}
{"serialNo":"TestDeviceOne:146"}
{"serialNo":"TestDeviceOne:147"}
{"serialNo":"TestDeviceOne:148"}
{"serialNo":"TestDeviceOne:149"}
{"serialNo":"TestDeviceOne:150"}
{"serialNo":"TestDeviceOne:151"}
{"serialNo":"TestDeviceOne:152"}
{"serialNo":"TestDeviceOne:153"}
{"serialNo":"TestDeviceOne:154"}
{"serialNo":"TestDeviceOne:155"}
{"serialNo":"TestDeviceOne:156"}
{"serialNo":"TestDeviceOne:157"}
{"serialNo":"TestDeviceOne:158"}
{"serialNo":"TestDeviceOne:159"}
{"serialNo":"TestDeviceOne:160"}
{"serialNo":"TestDeviceOne:161"}
{"serialNo":"TestDeviceOne:162"}
{"serialNo":"TestDeviceOne:163"}
{"serialNo":"TestDeviceOne:164"}
{"serialNo":"TestDeviceOne:165"}
{"serialNo":"TestDeviceOne:166"}
{"serialNo":"TestDeviceOne:167"}
{"serialNo":"TestDeviceOne:168"}
{"serialNo":"TestDeviceOne:169"}
{"serialNo":"TestDeviceOne:170"}
{"serialNo":"TestDeviceOne:171"}
{"serialNo":"TestDeviceOne:172"}
{"serialNo":"TestDeviceOne:173"}
{"serialNo":"TestDeviceOne:174"}
{"serialNo":"TestDeviceOne:175"}
{"serialNo":"TestDeviceOne:176"}
{"serialNo":"TestDeviceOne:177"}
{"serialNo":"TestDeviceOne:178"}
{"serialNo":"TestDeviceOne:179"}
{"serialNo":"TestDeviceOne:180"}
{"serialNo":"TestDeviceOne:181"}
{"serialNo":"TestDeviceOne:182"}
{"serialNo":"TestDeviceOne:183"}
{"serialNo":"TestDeviceOne:184"}
{"serialNo":"TestDeviceOne:185"}
{"serialNo":"TestDeviceOne:186"}
{"serialNo":"TestDeviceOne:187"}
{"serialNo":"TestDeviceOne:188"}
{"serialNo":"TestDeviceOne:189"}
{"serialNo":"TestDeviceOne:190"}
{"serialNo":"TestDeviceOne:191"}
{"serialNo":"TestDeviceOne:192"}
{"serialNo":"TestDeviceOne:193"}
{"serialNo":"TestDeviceOne:194"}
{"serialNo":"TestDeviceOne:195"}
{"serialNo":"TestDeviceOne:196"}
{"serialNo":"TestDeviceOne:197"}
{"serialNo":"TestDeviceOne:198"}
{"serialNo":"TestDeviceOne:199"}
{"serialNo":"TestDeviceOne:200"}
{"serialNo":"TestDeviceOne:201"}
{"serialNo":"TestDeviceOne:202"}
{"serialNo":"TestDeviceOne:203"}
{"serialNo":"TestDeviceOne:204"}
{"serialNo":"TestDeviceOne:205"}
{"serialNo":"TestDeviceOne:206"}
{"serialNo":"TestDeviceOne:207"}
{"serialNo":"TestDeviceOne:208"}
{"serialNo":"TestDeviceOne:209"}
{"serialNo":"TestDeviceOne:210"}
{"serialNo":"TestDeviceOne:211"}
{"serialNo":"TestDeviceOne:212"}
{"serialNo":"TestDeviceOne:213"}
{"serialNo":"TestDeviceOne:214"}
{"serialNo":"TestDeviceOne:215"}
{"serialNo":"TestDeviceOne:216"}
{"serialNo":"TestDeviceOne:217"}
{"serialNo":"TestDeviceOne:218"}
{"serialNo":"TestDeviceOne:219"}
{"serialNo":"TestDeviceOne:220"}
{"serialNo":"TestDeviceOne:221"}
{"serialNo":"TestDeviceOne:222"}
{"serialNo":"TestDeviceOne:223"}
{"serialNo":"TestDeviceOne:224"}
{"serialNo":"TestDeviceOne:225"}
{"serialNo":"TestDeviceOne:226"}
{"serialNo":"TestDeviceOne:227"}
{"serialNo":"TestDeviceOne:228"}
{"serialNo":"TestDeviceOne:229"}
{"serialNo":"TestDeviceOne:230"}
{"serialNo":"TestDeviceOne:231"}
{"serialNo":"TestDeviceOne:232"}
{"serialNo":"TestDeviceOne:233"}
{"serialNo":"TestDeviceOne:234"}
{"serialNo":"TestDeviceOne:235"}
{"serialNo":"TestDeviceOne:236"}
{"serialNo":"TestDeviceOne:237"}
{"serialNo":"TestDeviceOne:238"}
{"serialNo":"TestDeviceOne:239"}
{"serialNo":"TestDeviceOne:240"}
{"serialNo":"TestDeviceOne:241"}
{"serialNo":"TestDeviceOne:242"}
{"serialNo":"TestDeviceOne:243"}
{"serialNo":"TestDeviceOne:244"}
{"serialNo":"TestDeviceOne:245"}
{"serialNo":"TestDeviceOne:246"}
{"serialNo":"TestDeviceOne:247"}
{"serialNo":"TestDeviceOne:248"}
{"serialNo":"TestDeviceOne:249"}
{"serialNo":"TestDeviceOne:250"}
{"serialNo":"TestDeviceOne:251"}
{"serialNo":"TestDeviceOne:252"}
{"serialNo":"TestDeviceOne:253"}
{"serialNo":"TestDeviceOne:254"}
{"serialNo":"TestDeviceOne:255"}
{"serialNo":"TestDeviceOne:256"}
{"serialNo":"TestDeviceOne:257"}
{"serialNo":"TestDeviceOne:258"}
{"serialNo":"TestDeviceOne:259"}
{"serialNo":"TestDeviceOne:260"}
{"serialNo":"TestDeviceOne:261"}
{"serialNo":"TestDeviceOne:262"}
{"serialNo":"TestDeviceOne:263"}
{"serialNo":"TestDeviceOne:264"}
{"serialNo":"TestDeviceOne:265"}
{"serialNo":"TestDeviceOne:266"}
{"serialNo":"TestDeviceOne:267"}
{"serialNo":"TestDeviceOne:268"}
{"serialNo":"TestDeviceOne:269"}
{"serialNo":"TestDeviceOne:270"}
{"serialNo":"TestDeviceOne:271"}
{"serialNo":"TestDeviceOne:272"}
{"serialNo":"TestDeviceOne:273"}
{"serialNo":"TestDeviceOne:274"}
{"serialNo":"TestDeviceOne:275"}
{"serialNo":"TestDeviceOne:276"}
{"serialNo":"TestDeviceOne:277"}
{"serialNo":"TestDeviceOne:278"}
{"serialNo":"TestDeviceOne:279"}
{"serialNo":"TestDeviceOne:280"}
{"serialNo":"TestDeviceOne:281"}
{"serialNo":"TestDeviceOne:282"}
{"serialNo":"TestDeviceOne:283"}
{"serialNo":"TestDeviceOne:284"}
{"serialNo":"TestDeviceOne:285"}
{"serialNo":"TestDeviceOne:286"}
{"serialNo":"TestDeviceOne:287"}
{"serialNo":"TestDeviceOne:288"}
{"serialNo":"TestDeviceOne:289"}
{"serialNo":"TestDeviceOne:290"}
{"serialNo":"TestDeviceOne:291"}
{"serialNo":"TestDeviceOne:292"}
{"serialNo":"TestDeviceOne:293"}
{"serialNo":"TestDeviceOne:294"}
{"serialNo":"TestDeviceOne:295"}
{"serialNo":"TestDeviceOne:296"}
{"serialNo":"TestDeviceOne:297"}
{"serialNo":"TestDeviceOne:298"}
{"serialNo":"TestDeviceOne:299"}
{"serialNo":"TestDeviceOne:300"}
{"serialNo":"TestDeviceOne:301"}
{"serialNo":"TestDeviceOne:302"}
{"serialNo":"TestDeviceOne:303"}
{"serialNo":"TestDeviceOne:304"}
{"serialNo":"TestDeviceOne:305"}
{"serialNo":"TestDeviceOne:306"}
{"serialNo":"TestDeviceOne:307"}
{"serialNo":"TestDeviceOne:308"}
{"serialNo":"TestDeviceOne:309"}
{"serialNo":"TestDeviceOne:310"}
{"serialNo":"TestDeviceOne:311"}
{"serialNo":"TestDeviceOne:312"}
{"serialNo":"TestDeviceOne:313"}
{"serialNo":"TestDeviceOne:314"}
{"serialNo":"TestDeviceOne:315"}
{"serialNo":"TestDeviceOne:316"}
{"serialNo":"TestDeviceOne:317"}
{"serialNo":"TestDeviceOne:318"}
{"serialNo":"TestDeviceOne:319"}
{"serialNo":"TestDeviceOne:320"}
{"serialNo":"TestDeviceOne:321"}
{"serialNo":"TestDeviceOne:322"}
{"serialNo":"TestDeviceOne:323"}
{"serialNo":"TestDeviceOne:324"}
{"serialNo":"TestDeviceOne:325"}
{"serialNo":"TestDeviceOne:326"}
{"serialNo":"TestDeviceOne:327"}
{"serialNo":"TestDeviceOne:328"}
{"serialNo":"TestDeviceOne:329"}
{"serialNo":"TestDeviceOne:330"}
{"serialNo":"TestDeviceOne:331"}
{"serialNo":"TestDeviceOne:332"}
{"serialNo":"TestDeviceOne:333"}
{"serialNo":"TestDeviceOne:334"}
{"serialNo":"TestDeviceOne:335"}
{"serialNo":"TestDeviceOne:336"}
{"serialNo":"TestDeviceOne:337"}
{"serialNo":"TestDeviceOne:338"}
{"serialNo":"TestDeviceOne:339"}
{"serialNo":"TestDeviceOne:340"}
{"serialNo":"TestDeviceOne:341"}
{"serialNo":"TestDeviceOne:342"}
{"serialNo":"TestDeviceOne:343"}
{"serialNo":"TestDeviceOne:344"}
{"serialNo":"TestDeviceOne:345"}
{"serialNo":"TestDeviceOne:346"}
{"serialNo":"TestDeviceOne:347"}
{"serialNo":"TestDeviceOne:348"}
{"serialNo":"TestDeviceOne:349"}
{"serialNo":"TestDeviceOne:350"}
{"serialNo":"TestDeviceOne:351"}
{"serialNo":"TestDeviceOne:352"}
{"serialNo":"TestDeviceOne:353"}
{"serialNo":"TestDeviceOne:354"}
{"serialNo":"TestDeviceOne:355"}
{"serialNo":"TestDeviceOne:356"}
{"serialNo":"TestDeviceOne:357"}
{"serialNo":"TestDeviceOne:358"}
{"serialNo":"TestDeviceOne:359"}
{"serialNo":"TestDeviceOne:360"}
{"serialNo":"TestDeviceOne:361"}
{"serialNo":"TestDeviceOne:362"}
{"serialNo":"TestDeviceOne:363"}
{"serialNo":"TestDeviceOne:364"}
{"serialNo":"TestDeviceOne:365"}
{"serialNo":"TestDeviceOne:366"}
{"serialNo":"TestDeviceOne:367"}
{"serialNo":"TestDeviceOne:368"}
{"serialNo":"TestDeviceOne:369"}
{"serialNo":"TestDeviceOne:370"}
{"serialNo":"TestDeviceOne:371"}
{"serialNo":"TestDeviceOne:372"}
{"serialNo":"TestDeviceOne:373"}
{"serialNo":"TestDeviceOne:374"}
{"serialNo":"TestDeviceOne:375"}
{"serialNo":"TestDeviceOne:376"}
{"serialNo":"TestDeviceOne:377"}
{"serialNo":"TestDeviceOne:378"}
{"serialNo":"TestDeviceOne:379"}
{"serialNo":"TestDeviceOne:380"}
{"serialNo":"TestDeviceOne:381"}
{"serialNo":"TestDeviceOne:382"}
{"serialNo":"TestDeviceOne:383"}
{"serialNo":"TestDeviceOne:384"}
{"serialNo":"TestDeviceOne:385"}
{"serialNo":"TestDeviceOne:386"}
{"serialNo":"TestDeviceOne:387"}
{"serialNo":"TestDeviceOne:388"}
{"serialNo":"TestDeviceOne:389"}
{"serialNo":"TestDeviceOne:390"}
{"serialNo":"TestDeviceOne:391"}
{"serialNo":"TestDeviceOne:392"}
{"serialNo":"TestDeviceOne:393"}
{"serialNo":"TestDeviceOne:394"}
{"serialNo":"TestDeviceOne:395"}
{"serialNo":"TestDeviceOne:396"}
{"serialNo":"TestDeviceOne:397"}
{"serialNo":"TestDeviceOne:398"}
{"serialNo":"TestDeviceOne:399"}
{"serialNo":"TestDeviceOne:400"}
{"serialNo":"TestDeviceOne:401"}
{"serialNo":"TestDeviceOne:402"}
{"serialNo":"TestDeviceOne:403"}
{"serialNo":"TestDeviceOne:404"}
{"serialNo":"TestDeviceOne:405"}
{"serialNo":"TestDeviceOne:406"}
{"serialNo":"TestDeviceOne:407"}
{"serialNo":"TestDeviceOne:408"}
{"serialNo":"TestDeviceOne:409"}
{"serialNo":"TestDeviceOne:410"}
{"serialNo":"TestDeviceOne:411"}
{"serialNo":"TestDeviceOne:412"}
{"serialNo":"TestDeviceOne:413"}
{"serialNo":"TestDeviceOne:414"}
{"serialNo":"TestDeviceOne:415"}
{"serialNo":"TestDeviceOne:416"}
{"serialNo":"TestDeviceOne:417"}
{"serialNo":"TestDeviceOne:418"}
{"serialNo":"TestDeviceOne:419"}
{"serialNo":"TestDeviceOne:420"}
{"serialNo":"TestDeviceOne:421"}
{"serialNo":"TestDeviceOne:422"}
{"serialNo":"TestDeviceOne:423"}
{"serialNo":"TestDeviceOne:424"}
{"serialNo":"TestDeviceOne:425"}
{"serialNo":"TestDeviceOne:426"}
{"serialNo":"TestDeviceOne:427"}
{"serialNo":"TestDeviceOne:428"}
{"serialNo":"TestDeviceOne:429"}
{"serialNo":"TestDeviceOne:430"}
{"serialNo":"TestDeviceOne:431"}
{"serialNo":"TestDeviceOne:432"}
{"serialNo":"TestDeviceOne:433"}
{"serialNo":"TestDeviceOne:434"}
{"serialNo":"TestDeviceOne:435"}
{"serialNo":"TestDeviceOne:436"}
{"serialNo":"TestDeviceOne:437"}
{"serialNo":"TestDeviceOne:438"}
{"serialNo":"TestDeviceOne:439"}
{"serialNo":"TestDeviceOne:440"}
{"serialNo":"TestDeviceOne:441"}
{"serialNo":"TestDeviceOne:442"}
{"serialNo":"TestDeviceOne:443"}
{"serialNo":"TestDeviceOne:444"}
{"serialNo":"TestDeviceOne:445"}
{"serialNo":"TestDeviceOne:446"}
{"serialNo":"TestDeviceOne:447"}
{"serialNo":"TestDeviceOne:448"}
{"serialNo":"TestDeviceOne:449"}
{"serialNo":"TestDeviceOne:450"}
{"serialNo":"TestDeviceOne:451"}
{"serialNo":"TestDeviceOne:452"}
{"serialNo":"TestDeviceOne:453"}
{"serialNo":"TestDeviceOne:454"}
{"serialNo":"TestDeviceOne:455"}
{"serialNo":"TestDeviceOne:456"}
{"serialNo":"TestDeviceOne:457"}
{"serialNo":"TestDeviceOne:458"}
{"serialNo":"TestDeviceOne:459"}
{"serialNo":"TestDeviceOne:460"}
{"serialNo":"TestDeviceOne:461"}
{"serialNo":"TestDeviceOne:462"}
{"serialNo":"TestDeviceOne:463"}
{"serialNo":"TestDeviceOne:464"}
{"serialNo":"TestDeviceOne:465"}
{"serialNo":"TestDeviceOne:466"}
{"serialNo":"TestDeviceOne:467"}
{"serialNo":"TestDeviceOne:468"}
{"serialNo":"TestDeviceOne:469"}
{"serialNo":"TestDeviceOne:470"}
{"serialNo":"TestDeviceOne:471"}
{"serialNo":"TestDeviceOne:472"}
{"serialNo":"TestDeviceOne:473"}
{"serialNo":"TestDeviceOne:474"}
{"serialNo":"TestDeviceOne:475"}
{"serialNo":"TestDeviceOne:476"}
{"serialNo":"TestDeviceOne:477"}
{"serialNo":"TestDeviceOne:478"}
{"serialNo":"TestDeviceOne:479"}
{"serialNo":"TestDeviceOne:480"}
{"serialNo":"TestDeviceOne:481"}
{"serialNo":"TestDeviceOne:482"}
{"serialNo":"TestDeviceOne:483"}
{"serialNo":"TestDeviceOne:484"}
{"serialNo":"TestDeviceOne:485"}
{"serialNo":"TestDeviceOne:486"}
{"serialNo":"TestDeviceOne:487"}
{"serialNo":"TestDeviceOne:488"}
{"serialNo":"TestDeviceOne:489"}
{"serialNo":"TestDeviceOne:490"}
{"serialNo":"TestDeviceOne:491"}
{"serialNo":"TestDeviceOne:492"}
{"serialNo":"TestDeviceOne:493"}
{"serialNo":"TestDeviceOne:494"}
{"serialNo":"TestDeviceOne:495"}
{"serialNo":"TestDeviceOne:496"}
{"serialNo":"TestDeviceOne:497"}
{"serialNo":"TestDeviceOne:498"}
{"serialNo":"TestDeviceOne:499"}
{"serialNo":"TestDeviceOne:500"}
{"serialNo":"TestDeviceOne:501"}
{"serialNo":"TestDeviceOne:502"}
{"serialNo":"TestDeviceOne:503"}
{"serialNo":"TestDeviceOne:504"}
{"serialNo":"TestDeviceOne:505"}
{"serialNo":"TestDeviceOne:506"}
{"serialNo":"TestDeviceOne:507"}
{"serialNo":"TestDeviceOne:508"}
{"serialNo":"TestDeviceOne:509"}
{"serialNo":"TestDeviceOne:510"}
{"serialNo":"TestDeviceOne:511"}
{"serialNo":"TestDeviceOne:512"}
{"serialNo":"TestDeviceOne:513"}
{"serialNo":"TestDeviceOne:514"}
{"serialNo":"TestDeviceOne:515"}
{"serialNo":"TestDeviceOne:516"}
{"serialNo":"TestDeviceOne:517"}
{"serialNo":"TestDeviceOne:518"}
{"serialNo":"TestDeviceOne:519"}
{"serialNo":"TestDeviceOne:520"}
{"serialNo":"TestDeviceOne:521"}
{"serialNo":"TestDeviceOne:522"}
{"serialNo":"TestDeviceOne:523"}
{"serialNo":"TestDeviceOne:524"}
{"serialNo":"TestDeviceOne:525"}
{"serialNo":"TestDeviceOne:526"}
{"serialNo":"TestDeviceOne:527"}
{"serialNo":"TestDeviceOne:528"}
{"serialNo":"TestDeviceOne:529"}
{"serialNo":"TestDeviceOne:530"}
{"serialNo":"TestDeviceOne:531"}
{"serialNo":"TestDeviceOne:532"}
{"serialNo":"TestDeviceOne:533"}
{"serialNo":"TestDeviceOne:534"}
{"serialNo":"TestDeviceOne:535"}
{"serialNo":"TestDeviceOne:536"}
{"serialNo":"TestDeviceOne:537"}
{"serialNo":"TestDeviceOne:538"}
{"serialNo":"TestDeviceOne:539"}
{"serialNo":"TestDeviceOne:540"}
{"serialNo":"TestDeviceOne:541"}
{"serialNo":"TestDeviceOne:542"}
{"serialNo":"TestDeviceOne:543"}
{"serialNo":"TestDeviceOne:544"}
{"serialNo":"TestDeviceOne:545"}
{"serialNo":"TestDeviceOne:546"}
{"serialNo":"TestDeviceOne:547"}
{"serialNo":"TestDeviceOne:548"}
{"serialNo":"TestDeviceOne:549"}
{"serialNo":"TestDeviceOne:550"}
{"serialNo":"TestDeviceOne:551"}
{"serialNo":"TestDeviceOne:552"}
{"serialNo":"TestDeviceOne:553"}
{"serialNo":"TestDeviceOne:554"}
{"serialNo":"TestDeviceOne:555"}
{"serialNo":"TestDeviceOne:556"}
{"serialNo":"TestDeviceOne:557"}
{"serialNo":"TestDeviceOne:558"}
{"serialNo":"TestDeviceOne:559"}
{"serialNo":"TestDeviceOne:560"}
{"serialNo":"TestDeviceOne:561"}
{"serialNo":"TestDeviceOne:562"}
{"serialNo":"TestDeviceOne:563"}
{"serialNo":"TestDeviceOne:564"}
{"serialNo":"TestDeviceOne:565"}
{"serialNo":"TestDeviceOne:566"}
{"serialNo":"TestDeviceOne:567"}
{"serialNo":"TestDeviceOne:568"}
{"serialNo":"TestDeviceOne:569"}
{"serialNo":"TestDeviceOne:570"}
{"serialNo":"TestDeviceOne:571"}
{"serialNo":"TestDeviceOne:572"}
{"serialNo":"TestDeviceOne:573"}
{"serialNo":"TestDeviceOne:574"}
{"serialNo":"TestDeviceOne:575"}
{"serialNo":"TestDeviceOne:576"}
{"serialNo":"TestDeviceOne:577"}
{"serialNo":"TestDeviceOne:578"}
{"serialNo":"TestDeviceOne:579"}
{"serialNo":"TestDeviceOne:580"}
{"serialNo":"TestDeviceOne:581"}
{"serialNo":"TestDeviceOne:582"}
{"serialNo":"TestDeviceOne:583"}
{"serialNo":"TestDeviceOne:584"}
{"serialNo":"TestDeviceOne:585"}
{"serialNo":"TestDeviceOne:586"}
{"serialNo":"TestDeviceOne:587"}
{"serialNo":"TestDeviceOne:588"}
{"serialNo":"TestDeviceOne:589"}
{"serialNo":"TestDeviceOne:590"}
{"serialNo":"TestDeviceOne:591"}
{"serialNo":"TestDeviceOne:592"}
{"serialNo":"TestDeviceOne:593"}
{"serialNo":"TestDeviceOne:594"}
{"serialNo":"TestDeviceOne:595"}
{"serialNo":"TestDeviceOne:596"}
{"serialNo":"TestDeviceOne:597"}
{"serialNo":"TestDeviceOne:598"}
{"serialNo":"TestDeviceOne:599"}
{"serialNo":"TestDeviceOne:600"}
{"serialNo":"TestDeviceOne:601"}
{"serialNo":"TestDeviceOne:602"}
{"serialNo":"TestDeviceOne:603"}
{"serialNo":"TestDeviceOne:604"}
{"serialNo":"TestDeviceOne:605"}
{"serialNo":"TestDeviceOne:606"}
{"serialNo":"TestDeviceOne:607"}
{"serialNo":"TestDeviceOne:608"}
{"serialNo":"TestDeviceOne:609"}
{"serialNo":"TestDeviceOne:610"}
{"serialNo":"TestDeviceOne:611"}
{"serialNo":"TestDeviceOne:612"}
{"serialNo":"TestDeviceOne:613"}
{"serialNo":"TestDeviceOne:614"}
{"serialNo":"TestDeviceOne:615"}
{"serialNo":"TestDeviceOne:616"}
{"serialNo":"TestDeviceOne:617"}
{"serialNo":"TestDeviceOne:618"}
{"serialNo":"TestDeviceOne:619"}
{"serialNo":"TestDeviceOne:620"}
{"serialNo":"TestDeviceOne:621"}
{"serialNo":"TestDeviceOne:622"}
{"serialNo":"TestDeviceOne:623"}
{"serialNo":"TestDeviceOne:624"}
{"serialNo":"TestDeviceOne:625"}
{"serialNo":"TestDeviceOne:626"}
{"serialNo":"TestDeviceOne:627"}
{"serialNo":"TestDeviceOne:628"}
{"serialNo":"TestDeviceOne:629"}
{"serialNo":"TestDeviceOne:630"}
{"serialNo":"TestDeviceOne:631"}
{"serialNo":"TestDeviceOne:632"}
{"serialNo":"TestDeviceOne:633"}
{"serialNo":"TestDeviceOne:634"}
{"serialNo":"TestDeviceOne:635"}
{"serialNo":"TestDeviceOne:636"}
{"serialNo":"TestDeviceOne:637"}
{"serialNo":"TestDeviceOne:638"}
{"serialNo":"TestDeviceOne:639"}
{"serialNo":"TestDeviceOne:640"}
{"serialNo":"TestDeviceOne:641"}
{"serialNo":"TestDeviceOne:642"}
{"serialNo":"TestDeviceOne:643"}
{"serialNo":"TestDeviceOne:644"}
{"serialNo":"TestDeviceOne:645"}
{"serialNo":"TestDeviceOne:646"}
{"serialNo":"TestDeviceOne:647"}
{"serialNo":"TestDeviceOne:648"}
{"serialNo":"TestDeviceOne:649"}
{"serialNo":"TestDeviceOne:650"}
{"serialNo":"TestDeviceOne:651"}
{"serialNo":"TestDeviceOne:652"}
{"serialNo":"TestDeviceOne:653"}
{"serialNo":"TestDeviceOne:654"}
{"serialNo":"TestDeviceOne:655"}
{"serialNo":"TestDeviceOne:656"}
{"serialNo":"TestDeviceOne:657"}
{"serialNo":"TestDeviceOne:658"}
{"serialNo":"TestDeviceOne:659"}
{"serialNo":"TestDeviceOne:660"}
{"serialNo":"TestDeviceOne:661"}
{"serialNo":"TestDeviceOne:662"}
{"serialNo":"TestDeviceOne:663"}
{"serialNo":"TestDeviceOne:664"}
{"serialNo":"TestDeviceOne:665"}
{"serialNo":"TestDeviceOne:666"}
{"serialNo":"TestDeviceOne:667"}
{"serialNo":"TestDeviceOne:668"}
{"serialNo":"TestDeviceOne:669"}
{"serialNo":"TestDeviceOne:670"}
{"serialNo":"TestDeviceOne:671"}
{"serialNo":"TestDeviceOne:672"}
{"serialNo":"TestDeviceOne:673"}
{"serialNo":"TestDeviceOne:674"}
{"serialNo":"TestDeviceOne:675"}
{"serialNo":"TestDeviceOne:676"}
{"serialNo":"TestDeviceOne:677"}
{"serialNo":"TestDeviceOne:678"}
{"serialNo":"TestDeviceOne:679"}
{"serialNo":"TestDeviceOne:680"}
{"serialNo":"TestDeviceOne:681"}
{"serialNo":"TestDeviceOne:682"}
{"serialNo":"TestDeviceOne:683"}
{"serialNo":"TestDeviceOne:684"}
{"serialNo":"TestDeviceOne:685"}
{"serialNo":"TestDeviceOne:686"}
{"serialNo":"TestDeviceOne:687"}
{"serialNo":"TestDeviceOne:688"}
{"serialNo":"TestDeviceOne:689"}
{"serialNo":"TestDeviceOne:690"}
{"serialNo":"TestDeviceOne:691"}
{"serialNo":"TestDeviceOne:692"}
{"serialNo":"TestDeviceOne:693"}
{"serialNo":"TestDeviceOne:694"}
{"serialNo":"TestDeviceOne:695"}
{"serialNo":"TestDeviceOne:696"}
{"serialNo":"TestDeviceOne:697"}
{"serialNo":"TestDeviceOne:698"}
{"serialNo":"TestDeviceOne:699"}
{"serialNo":"TestDeviceOne:700"}
{"serialNo":"TestDeviceOne:701"}
{"serialNo":"TestDeviceOne:702"}
{"serialNo":"TestDeviceOne:703"}
{"serialNo":"TestDeviceOne:704"}
{"serialNo":"TestDeviceOne:705"}
{"serialNo":"TestDeviceOne:706"}
{"serialNo":"TestDeviceOne:707"}
{"serialNo":"TestDeviceOne:708"}
{"serialNo":"TestDeviceOne:709"}
{"serialNo":"TestDeviceOne:710"}
{"serialNo":"TestDeviceOne:711"}
{"serialNo":"TestDeviceOne:712"}
{"serialNo":"TestDeviceOne:713"}
{"serialNo":"TestDeviceOne:714"}
{"serialNo":"TestDeviceOne:715"}
{"serialNo":"TestDeviceOne:716"}
{"serialNo":"TestDeviceOne:717"}
{"serialNo":"TestDeviceOne:718"}
{"serialNo":"TestDeviceOne:719"}
{"serialNo":"TestDeviceOne:720"}
{"serialNo":"TestDeviceOne:721"}
{"serialNo":"TestDeviceOne:722"}
{"serialNo":"TestDeviceOne:723"}
{"serialNo":"TestDeviceOne:724"}
{"serialNo":"TestDeviceOne:725"}
{"serialNo":"TestDeviceOne:726"}
{"serialNo":"TestDeviceOne:727"}
{"serialNo":"TestDeviceOne:728"}
{"serialNo":"TestDeviceOne:729"}
{"serialNo":"TestDeviceOne:730"}
{"serialNo":"TestDeviceOne:731"}
{"serialNo":"TestDeviceOne:732"}
{"serialNo":"TestDeviceOne:733"}
{"serialNo":"TestDeviceOne:734"}
{"serialNo":"TestDeviceOne:735"}
{"serialNo":"TestDeviceOne:736"}
{"serialNo":"TestDeviceOne:737"}
{"serialNo":"TestDeviceOne:738"}
{"serialNo":"TestDeviceOne:739"}
{"serialNo":"TestDeviceOne:740"}
{"serialNo":"TestDeviceOne:741"}
{"serialNo":"TestDeviceOne:742"}
{"serialNo":"TestDeviceOne:743"}
{"serialNo":"TestDeviceOne:744"}
{"serialNo":"TestDeviceOne:745"}
{"serialNo":"TestDeviceOne:746"}
{"serialNo":"TestDeviceOne:747"}
{"serialNo":"TestDeviceOne:748"}
{"serialNo":"TestDeviceOne:749"}
{"serialNo":"TestDeviceOne:750"}
{"serialNo":"TestDeviceOne:751"}
{"serialNo":"TestDeviceOne:752"}
{"serialNo":"TestDeviceOne:753"}
{"serialNo":"TestDeviceOne:754"}
{"serialNo":"TestDeviceOne:755"}
{"serialNo":"TestDeviceOne:756"}
{"serialNo":"TestDeviceOne:757"}
{"serialNo":"TestDeviceOne:758"}
{"serialNo":"TestDeviceOne:759"}
{"serialNo":"TestDeviceOne:760"}
{"serialNo":"TestDeviceOne:761"}
{"serialNo":"TestDeviceOne:762"}
{"serialNo":"TestDeviceOne:763"}
{"serialNo":"TestDeviceOne:764"}
{"serialNo":"TestDeviceOne:765"}
{"serialNo":"TestDeviceOne:766"}
{"serialNo":"TestDeviceOne:767"}
{"serialNo":"TestDeviceOne:768"}
{"serialNo":"TestDeviceOne:769"}
{"serialNo":"TestDeviceOne:770"}
{"serialNo":"TestDeviceOne:771"}
{"serialNo":"TestDeviceOne:772"}
{"serialNo":"TestDeviceOne:773"}
{"serialNo":"TestDeviceOne:774"}
{"serialNo":"TestDeviceOne:775"}
{"serialNo":"TestDeviceOne:776"}
{"serialNo":"TestDeviceOne:777"}
{"serialNo":"TestDeviceOne:778"}
{"serialNo":"TestDeviceOne:779"}
{"serialNo":"TestDeviceOne:780"}
{"serialNo":"TestDeviceOne:781"}
{"serialNo":"TestDeviceOne:782"}
{"serialNo":"TestDeviceOne:783"}
{"serialNo":"TestDeviceOne:784"}
{"serialNo":"TestDeviceOne:785"}
{"serialNo":"TestDeviceOne:786"}
{"serialNo":"TestDeviceOne:787"}
{"serialNo":"TestDeviceOne:788"}
{"serialNo":"TestDeviceOne:789"}
{"serialNo":"TestDeviceOne:790"}
{"serialNo":"TestDeviceOne:791"}
{"serialNo":"TestDeviceOne:792"}
{"serialNo":"TestDeviceOne:793"}
{"serialNo":"TestDeviceOne:794"}
{"serialNo":"TestDeviceOne:795"}
{"serialNo":"TestDeviceOne:796"}
{"serialNo":"TestDeviceOne:797"}
{"serialNo":"TestDeviceOne:798"}
{"serialNo":"TestDeviceOne:799"}
{"serialNo":"TestDeviceOne:800"}
{"serialNo":"TestDeviceOne:801"}
{"serialNo":"TestDeviceOne:802"}
{"serialNo":"TestDeviceOne:803"}
{"serialNo":"TestDeviceOne:804"}
{"serialNo":"TestDeviceOne:805"}
{"serialNo":"TestDeviceOne:806"}
{"serialNo":"TestDeviceOne:807"}
{"serialNo":"TestDeviceOne:808"}
{"serialNo":"TestDeviceOne:809"}
{"serialNo":"TestDeviceOne:810"}
{"serialNo":"TestDeviceOne:811"}
{"serialNo":"TestDeviceOne:812"}
{"serialNo":"TestDeviceOne:813"}
{"serialNo":"TestDeviceOne:814"}
{"serialNo":"TestDeviceOne:815"}
{"serialNo":"TestDeviceOne:816"}
{"serialNo":"TestDeviceOne:817"}
{"serialNo":"TestDeviceOne:818"}
{"serialNo":"TestDeviceOne:819"}
{"serialNo":"TestDeviceOne:820"}
{"serialNo":"TestDeviceOne:821"}
{"serialNo":"TestDeviceOne:822"}
{"serialNo":"TestDeviceOne:823"}
{"serialNo":"TestDeviceOne:824"}
{"serialNo":"TestDeviceOne:825"}
{"serialNo":"TestDeviceOne:826"}
{"serialNo":"TestDeviceOne:827"}
{"serialNo":"TestDeviceOne:828"}
{"serialNo":"TestDeviceOne:829"}
{"serialNo":"TestDeviceOne:830"}
{"serialNo":"TestDeviceOne:831"}
{"serialNo":"TestDeviceOne:832"}
{"serialNo":"TestDeviceOne:833"}
{"serialNo":"TestDeviceOne:834"}
{"serialNo":"TestDeviceOne:835"}
{"serialNo":"TestDeviceOne:836"}
{"serialNo":"TestDeviceOne:837"}
{"serialNo":"TestDeviceOne:838"}
{"serialNo":"TestDeviceOne:839"}
{"serialNo":"TestDeviceOne:840"}
{"serialNo":"TestDeviceOne:841"}
{"serialNo":"TestDeviceOne:842"}
{"serialNo":"TestDeviceOne:843"}
{"serialNo":"TestDeviceOne:844"}
{"serialNo":"TestDeviceOne:845"}
{"serialNo":"TestDeviceOne:846"}
{"serialNo":"TestDeviceOne:847"}
{"serialNo":"TestDeviceOne:848"}
{"serialNo":"TestDeviceOne:849"}
{"serialNo":"TestDeviceOne:850"}
{"serialNo":"TestDeviceOne:851"}
{"serialNo":"TestDeviceOne:852"}
{"serialNo":"TestDeviceOne:853"}
{"serialNo":"TestDeviceOne:854"}
{"serialNo":"TestDeviceOne:855"}
{"serialNo":"TestDeviceOne:856"}
{"serialNo":"TestDeviceOne:857"}
{"serialNo":"TestDeviceOne:858"}
{"serialNo":"TestDeviceOne:859"}
{"serialNo":"TestDeviceOne:860"}
{"serialNo":"TestDeviceOne:861"}
{"serialNo":"TestDeviceOne:862"}
{"serialNo":"TestDeviceOne:863"}
{"serialNo":"TestDeviceOne:864"}
{"serialNo":"TestDeviceOne:865"}
{"serialNo":"TestDeviceOne:866"}
{"serialNo":"TestDeviceOne:867"}
{"serialNo":"TestDeviceOne:868"}
{"serialNo":"TestDeviceOne:869"}
{"serialNo":"TestDeviceOne:870"}
{"serialNo":"TestDeviceOne:871"}
{"serialNo":"TestDeviceOne:872"}
{"serialNo":"TestDeviceOne:873"}
{"serialNo":"TestDeviceOne:874"}
{"serialNo":"TestDeviceOne:875"}
{"serialNo":"TestDeviceOne:876"}
{"serialNo":"TestDeviceOne:877"}
{"serialNo":"TestDeviceOne:878"}
{"serialNo":"TestDeviceOne:879"}
{"serialNo":"TestDeviceOne:880"}
{"serialNo":"TestDeviceOne:881"}
{"serialNo":"TestDeviceOne:882"}
{"serialNo":"TestDeviceOne:883"}
{"serialNo":"TestDeviceOne:884"}
{"serialNo":"TestDeviceOne:885"}
{"serialNo":"TestDeviceOne:886"}
{"serialNo":"TestDeviceOne:887"}
{"serialNo":"TestDeviceOne:888"}
{"serialNo":"TestDeviceOne:889"}
{"serialNo":"TestDeviceOne:890"}
{"serialNo":"TestDeviceOne:891"}
{"serialNo":"TestDeviceOne:892"}
{"serialNo":"TestDeviceOne:893"}
{"serialNo":"TestDeviceOne:894"}
{"serialNo":"TestDeviceOne:895"}
{"serialNo":"TestDeviceOne:896"}
{"serialNo":"TestDeviceOne:897"}
{"serialNo":"TestDeviceOne:898"}
{"serialNo":"TestDeviceOne:899"}
{"serialNo":"TestDeviceOne:900"}
{"serialNo":"TestDeviceOne:901"}
{"serialNo":"TestDeviceOne:902"}
{"serialNo":"TestDeviceOne:903"}
{"serialNo":"TestDeviceOne:904"}
{"serialNo":"TestDeviceOne:905"}
{"serialNo":"TestDeviceOne:906"}
{"serialNo":"TestDeviceOne:907"}
{"serialNo":"TestDeviceOne:908"}
{"serialNo":"TestDeviceOne:909"}
{"serialNo":"TestDeviceOne:910"}
{"serialNo":"TestDeviceOne:911"}
{"serialNo":"TestDeviceOne:912"}
{"serialNo":"TestDeviceOne:913"}
{"serialNo":"TestDeviceOne:914"}
{"serialNo":"TestDeviceOne:915"}
{"serialNo":"TestDeviceOne:916"}
{"serialNo":"TestDeviceOne:917"}
{"serialNo":"TestDeviceOne:918"}
{"serialNo":"TestDeviceOne:919"}
{"serialNo":"TestDeviceOne:920"}
{"serialNo":"TestDeviceOne:921"}
{"serialNo":"TestDeviceOne:922"}
{"serialNo":"TestDeviceOne:923"}
{"serialNo":"TestDeviceOne:924"}
{"serialNo":"TestDeviceOne:925"}
{"serialNo":"TestDeviceOne:926"}
{"serialNo":"TestDeviceOne:927"}
{"serialNo":"TestDeviceOne:928"}
{"serialNo":"TestDeviceOne:929"}
{"serialNo":"TestDeviceOne:930"}
{"serialNo":"TestDeviceOne:931"}
{"serialNo":"TestDeviceOne:932"}
{"serialNo":"TestDeviceOne:933"}
{"serialNo":"TestDeviceOne:934"}
{"serialNo":"TestDeviceOne:935"}
{"serialNo":"TestDeviceOne:936"}
{"serialNo":"TestDeviceOne:937"}
{"serialNo":"TestDeviceOne:938"}
{"serialNo":"TestDeviceOne:939"}
{"serialNo":"TestDeviceOne:940"}
{"serialNo":"TestDeviceOne:941"}
{"serialNo":"TestDeviceOne:942"}
{"serialNo":"TestDeviceOne:943"}
{"serialNo":"TestDeviceOne:944"}
{"serialNo":"TestDeviceOne:945"}
{"serialNo":"TestDeviceOne:946"}
{"serialNo":"TestDeviceOne:947"}
{"serialNo":"TestDeviceOne:948"}
{"serialNo":"TestDeviceOne:949"}
{"serialNo":"TestDeviceOne:950"}
{"serialNo":"TestDeviceOne:951"}
{"serialNo":"TestDeviceOne:952"}
{"serialNo":"TestDeviceOne:953"}
{"serialNo":"TestDeviceOne:954"}
{"serialNo":"TestDeviceOne:955"}
{"serialNo":"TestDeviceOne:956"}
{"serialNo":"TestDeviceOne:957"}
{"serialNo":"TestDeviceOne:958"}
{"serialNo":"TestDeviceOne:959"}
{"serialNo":"TestDeviceOne:960"}
{"serialNo":"TestDeviceOne:961"}
{"serialNo":"TestDeviceOne:962"}
{"serialNo":"TestDeviceOne:963"}
{"serialNo":"TestDeviceOne:964"}
{"serialNo":"TestDeviceOne:965"}
{"serialNo":"TestDeviceOne:966"}
{"serialNo":"TestDeviceOne:967"}
{"serialNo":"TestDeviceOne:968"}
{"serialNo":"TestDeviceOne:969"}
{"serialNo":"TestDeviceOne:970"}
{"serialNo":"TestDeviceOne:971"}
{"serialNo":"TestDeviceOne:972"}
{"serialNo":"TestDeviceOne:973"}
{"serialNo":"TestDeviceOne:974"}
{"serialNo":"TestDeviceOne:975"}
{"serialNo":"TestDeviceOne:976"}
{"serialNo":"TestDeviceOne:977"}
{"serialNo":"TestDeviceOne:978"}
{"serialNo":"TestDeviceOne:979"}
{"serialNo":"TestDeviceOne:980"}
{"serialNo":"TestDeviceOne:981"}
{"serialNo":"TestDeviceOne:982"}
{"serialNo":"TestDeviceOne:983"}
{"serialNo":"TestDeviceOne:984"}
{"serialNo":"TestDeviceOne:985"}
{"serialNo":"TestDeviceOne:986"}
{"serialNo":"TestDeviceOne:987"}
{"serialNo":"TestDeviceOne:988"}
{"serialNo":"TestDeviceOne:989"}
{"serialNo":"TestDeviceOne:990"}
{"serialNo":"TestDeviceOne:991"}
{"serialNo":"TestDeviceOne:992"}
{"serialNo":"TestDeviceOne:993"}
{"serialNo":"TestDeviceOne:994"}
{"serialNo":"TestDeviceOne:995"}
{"serialNo":"TestDeviceOne:996"}
{"serialNo":"TestDeviceOne:997"}
{"serialNo":"TestDeviceOne:998"}
{"serialNo":"TestDeviceOne:999"}
{"serialNo":"TestDeviceOne:1000"}
