{
    "type": "object",
    "id": "#",
    "required": ["type"],
    "additionalProperties":false,
    "properties": {
        "type": {
            "type": "string",
            "id": "type",
            "enum": [
                "heartbeat"
            ]
        }
    }
}