{
    "type": "object",
    "id": "#",
    "required": ["races","serialNo","serialSig","type","startEVMSig","district"],
    "additionalProperties":false,
    "properties": {
        "races": {
            "type": "array",
            "id": "races",
            "additionalItems": false,
            "items": [
                {
                    "type": "object",
                    "id": "0",
                    "properties": {
                        "id": {
                            "type": "string",
                            "id": "id",
                            "enum": [
                                "la"
                            ]
                        },
                        "preferences": {
                            "type": "array",
                            "id": "preferences",
                            "items": {
                                "type": "string",
                                "id": "0",
                                "pattern": "^[1-9 ][0-9]?$"
                            }
                        }
                    }
                },
                {
                    "type": "object",
                    "id": "1",
                    "properties": {
                        "id": {
                            "type": "string",
                            "id": "id",
                            "enum": [
                                "lc_atl"
                            ]
                        },
                        "preferences": {
                            "type": "array",
                            "id": "preferences",
                            "items": {
                                "type": "string",
                                "id": "0",
                                "pattern": "^[1-9 ][0-9]?$"
                            }
                        }
                    }
                },
                {
                    "type": "object",
                    "id": "2",
                    "properties": {
                        "id": {
                            "type": "string",
                            "id": "id",
                            "enum": [
                                "lc_btl"
                            ]
                        },
                        "preferences": {
                            "type": "array",
                            "id": "preferences",
                            "items": {
                                "type": "string",
                                "id": "0",
                                "pattern": "^[1-9 ][0-9]?$"
                            }
                        }
                    }
                }
            ]
        },
        "serialNo": {
            "type": "string",
            "id": "serialNo",
            "pattern": "^[A-Za-z0-9]*:[0-9]{1,7}$"
        },
        "serialSig": {
            "type": [
                "string",
                "array"
            ],
            "id": "serialSig",
            "pattern": "^(?:[A-Za-z0-9+/]{4})*(?:[A-Za-z0-9+/]{2}==|[A-Za-z0-9+/]{3}=)?$",
            "items": {
                "type": "object",
                "id": "serialSigs",
                "properties": {
                    "WBBID": {
                        "type": "string",
                        "id": "WBBID"
                    },
                    "WBBSig": {
                        "type": "string",
                        "id": "WBBSig",
                        "pattern": "^(?:[A-Za-z0-9+/]{4})*(?:[A-Za-z0-9+/]{2}==|[A-Za-z0-9+/]{3}=)?$"
                    }
                }
            }
        },
        "type": {
            "type": "string",
            "id": "type",
            "enum": [
                "vote"
            ]
        },
        "startEVMSig": {
			"type":["string","array"],
			"id": "serialSig",
			"pattern":"^(?:[A-Za-z0-9+/]{4})*(?:[A-Za-z0-9+/]{2}==|[A-Za-z0-9+/]{3}=)?$",
			"items":{
					"type":"object",
					"id": "serialSigs",
					"properties": { 
						"WBBID": {
							"type":"string",
							"id": "WBBID"
						},
						"WBBSig": {
							"type":"string",
							"id": "WBBSig",
							"pattern":"^(?:[A-Za-z0-9+/]{4})*(?:[A-Za-z0-9+/]{2}==|[A-Za-z0-9+/]{3}=)?$"
						}
					}
				}	
		},
		"district": {
			"type":"string",
			"id": "district"
		}
    }
}