{
"racesConf":"./testdata/races.json",
"ballotsToAudit":10,
"ballotToGenerate":100,
"BallotOutputFolder":"./testdata/ballots",
"ballotList":"./testdata/ballots.json",
"ballotDB":"./testdata/ballotDB.json"
}